{
  "size": 10,
  "page": 1,
  "pages": 5030,
  "count": 50295,
  "data": [
    {
      "id": "42285315-2",
      "lot_id": 42285315,
      "site": 2,
      "base_site": "iaai",
      "salvage_id": 42777503,
      "odometer": 89965,
      "price_new": 9400,
      "price_future": 9400,
      "reserve_price": 9400,
      "cost_priced": 22512,
      "cost_repair": 18437,
      "year": 2019,
      "cylinders": 4,
      "state": "OH",
      "vehicle_type": "Automobile",
      "auction_type": "Buynow",
      "make": "Toyota",
      "make_old": "toyota",
      "model": "Tacoma",
      "model_old": "tacoma",
      "series": "Sr",
      "series_old": "sr",
      "damage_pr": "Rear End",
      "damage_sec": "Rear End",
      "keys": "Yes",
      "odobrand": "Actual",
      "fuel": "Gasoline",
      "drive": "All Wheel Drive",
      "transmission": "Automatic",
      "color": "Silver",
      "status": "Run & Drive",
      "title": "2019 TOYOTA TACOMA SR",
      "vin": "5TFSX5EN7KX067145",
      "engine": "2.7l i-4 dohc, vvt, 159hp",
      "engine_size": 2.7,
      "location": "Cincinnati (OH)",
      "location_old": "cincinnati (oh)",
      "location_id": 66,
      "country": "usa",
      "document": "Salvage",
      "document_old": "Salvage (Ohio)",
      "currency": "usd",
      "seller": "Trexis Insurance",
      "is_buynow": true,
      "iaai_360": "https://vis.iaai.com/Home/ThreeSixtyView?keys=SID-42777503~STP-1~INT-1&iframeview=true",
      "copart_exterior_360": [],
      "copart_interior_360": null,
      "video": "https://mediastorageaccountprod.blob.core.windows.net/media/42777503_VES-100_1",
      "link_img_hd": [
        "https://vis.iaai.com/deepzoom?imageKey=42777503~SID~B653~S0~I1~RW2576~H1932~TH0&level=12&x=0&y=0&overlap=0&tilesize=5000"
      ],
      "link_img_small": [
        "https://vis.iaai.com/resizer?imageKeys=42777503~SID~B653~S0~I1~RW2576~H1932~TH0&width=845&height=633"
      ],
      "is_offsite": false,
      "location_offsite": null,
      "link": "https://www.iaai.com/VehicleDetail/42777503~US",
      "vehicle_score": "46/50",
      "seller_type": "insurance",
      "sale_history": [
        {
          "id": "61254349",
          "lot_id": 42285315,
          "site": 2,
          "base_site": "iaai",
          "vin": "5TFSX5EN7KX067145",
          "sale_status": "Sold",
          "sale_date": "2025-05-31T07:58:18.000Z",
          "purchase_price": 9400,
          "is_buynow": false,
          "buyer_state": null,
          "buyer_country": null,
          "vehicle_type": "truck",
          "rec": 0,
          "created_at": "2025-06-01T04:04:59.140Z",
          "updated_at": "2025-06-01T04:04:59.140Z"
        }
      ],
      "sale_date": "2025-05-31T07:58:18.000Z",
      "sale_status": "Sold",
      "purchase_price": 9400,
      "created_at": "2025-05-19T06:06:25.000Z",
      "updated_at": "2025-06-01T04:04:59.285Z"
    },
    {
      "id": "41958816-2",
      "lot_id": 41958816,
      "site": 2,
      "base_site": "iaai",
      "salvage_id": 42450234,
      "odometer": 55151,
      "price_new": 10000,
      "price_future": 10000,
      "reserve_price": 10000,
      "cost_priced": 25143,
      "cost_repair": 16523,
      "year": 2021,
      "cylinders": 4,
      "state": "FL",
      "vehicle_type": "Automobile",
      "auction_type": "Buynow",
      "make": "Toyota",
      "make_old": "toyota",
      "model": "Tacoma",
      "model_old": "tacoma",
      "series": "Sr",
      "series_old": "sr",
      "damage_pr": "Front End",
      "damage_sec": "Suspension",
      "keys": "Yes",
      "odobrand": "Actual",
      "fuel": "Gasoline",
      "drive": "Unknown",
      "transmission": "Automatic",
      "color": "Grey",
      "status": "Run & Drive",
      "title": "2021 TOYOTA TACOMA SR",
      "vin": "3TYAX5GN9MT022049",
      "engine": "2.7l i-4 dohc, vvt, 159hp",
      "engine_size": 2.7,
      "location": "Miami-North (FL)",
      "location_old": "miami-north (fl)",
      "location_id": 261,
      "country": "usa",
      "document": "Other",
      "document_old": "Rebuildable (Florida)",
      "currency": "usd",
      "seller": "Progressive",
      "is_buynow": true,
      "iaai_360": "https://vis.iaai.com/Home/ThreeSixtyView?keys=SID-42450234~STP-1~INT-1&iframeview=true",
      "copart_exterior_360": [],
      "copart_interior_360": null,
      "video": "https://mediastorageaccountprod.blob.core.windows.net/media/42450234_VES-100_1",
      "link_img_hd": [
        "https://vis.iaai.com/deepzoom?imageKey=42450234~SID~B736~S0~I1~RW2576~H1932~TH0&level=12&x=0&y=0&overlap=0&tilesize=5000"
      ],
      "link_img_small": [
        "https://vis.iaai.com/resizer?imageKeys=42450234~SID~B736~S0~I1~RW2576~H1932~TH0&width=845&height=633"
      ],
      "is_offsite": true,
      "location_offsite": "Miami-North 2 Offsite\n6275 SW 196TH AVE\nPEMBROKE PINES, FL, 33332\n954-680-4370",
      "link": "https://www.iaai.com/VehicleDetail/42450234~US",
      "vehicle_score": "26/50",
      "seller_type": "insurance",
      "sale_history": [
        {
          "id": "61254431",
          "lot_id": 41958816,
          "site": 2,
          "base_site": "iaai",
          "vin": "3TYAX5GN9MT022049",
          "sale_status": "Sold",
          "sale_date": "2025-05-31T07:58:18.000Z",
          "purchase_price": 10000,
          "is_buynow": false,
          "buyer_state": null,
          "buyer_country": null,
          "vehicle_type": "truck",
          "rec": 0,
          "created_at": "2025-06-01T04:09:06.814Z",
          "updated_at": "2025-06-01T04:09:06.814Z"
        }
      ],
      "sale_date": "2025-05-31T07:58:18.000Z",
      "sale_status": "Sold",
      "purchase_price": 10000,
      "created_at": "2025-04-05T07:27:23.000Z",
      "updated_at": "2025-06-01T04:09:06.856Z"
    },
    {
      "id": "41868175-2",
      "lot_id": 41868175,
      "site": 2,
      "base_site": "iaai",
      "salvage_id": 42359394,
      "odometer": 4562,
      "price_new": 24725,
      "price_future": 24725,
      "reserve_price": 24725,
      "cost_priced": 41215,
      "cost_repair": 15710,
      "year": 2024,
      "cylinders": 4,
      "state": "NC",
      "vehicle_type": "Automobile",
      "auction_type": "Buynow",
      "make": "Toyota",
      "make_old": "toyota",
      "model": "Tacoma",
      "model_old": "tacoma",
      "series": "Sr5 4wd",
      "series_old": "sr5 4wd",
      "damage_pr": "Rear End",
      "damage_sec": "Unknown",
      "keys": "Yes",
      "odobrand": "Actual",
      "fuel": "Gasoline",
      "drive": "All Wheel Drive",
      "transmission": "Automatic",
      "color": "White",
      "status": "Run & Drive",
      "title": "2024 TOYOTA TACOMA SR5 4WD",
      "vin": "3TYLB5JN0RT044626",
      "engine": "2.4l i-4 di, dohc, vvt, turbo, 278hp",
      "engine_size": 2.4,
      "location": "Concord (NC)",
      "location_old": "concord (nc)",
      "location_id": 305,
      "country": "usa",
      "document": "Salvage",
      "document_old": "Salvage (North Carolina)",
      "currency": "usd",
      "seller": "Progressive",
      "is_buynow": true,
      "iaai_360": "https://vis.iaai.com/Home/ThreeSixtyView?keys=SID-42359394~STP-1~INT-1&iframeview=true",
      "copart_exterior_360": [],
      "copart_interior_360": null,
      "video": "https://mediastorageaccountprod.blob.core.windows.net/media/42359394_VES-100_1",
      "link_img_hd": [
        "https://vis.iaai.com/deepzoom?imageKey=42359394~SID~B746~S0~I1~RW2576~H1932~TH0&level=12&x=0&y=0&overlap=0&tilesize=5000"
      ],
      "link_img_small": [
        "https://vis.iaai.com/resizer?imageKeys=42359394~SID~B746~S0~I1~RW2576~H1932~TH0&width=845&height=633"
      ],
      "is_offsite": false,
      "location_offsite": null,
      "link": "https://www.iaai.com/VehicleDetail/42359394~US",
      "vehicle_score": "38/50",
      "seller_type": "insurance",
      "sale_history": [
        {
          "id": "61254303",
          "lot_id": 41868175,
          "site": 2,
          "base_site": "iaai",
          "vin": "3TYLB5JN0RT044626",
          "sale_status": "Sold",
          "sale_date": "2025-05-31T07:58:17.000Z",
          "purchase_price": 24725,
          "is_buynow": false,
          "buyer_state": null,
          "buyer_country": null,
          "vehicle_type": "truck",
          "rec": 0,
          "created_at": "2025-06-01T04:09:31.796Z",
          "updated_at": "2025-06-01T04:09:31.796Z"
        }
      ],
      "sale_date": "2025-05-31T07:58:17.000Z",
      "sale_status": "Sold",
      "purchase_price": 24725,
      "created_at": "2025-03-26T10:04:12.000Z",
      "updated_at": "2025-06-01T04:09:31.830Z"
    },
    {
      "id": "42091508-2",
      "lot_id": 42091508,
      "site": 2,
      "base_site": "iaai",
      "salvage_id": 42583272,
      "odometer": 59371,
      "price_new": 16750,
      "price_future": 16750,
      "reserve_price": 16750,
      "cost_priced": 32716,
      "cost_repair": null,
      "year": 2021,
      "cylinders": 6,
      "state": "VA",
      "vehicle_type": "Automobile",
      "auction_type": "Buynow",
      "make": "Toyota",
      "make_old": "toyota",
      "model": "Tacoma",
      "model_old": "tacoma",
      "series": "Trd Sport",
      "series_old": "trd sport",
      "damage_pr": "Front End",
      "damage_sec": "Unknown",
      "keys": "Yes",
      "odobrand": "Actual",
      "fuel": "Gasoline",
      "drive": "All Wheel Drive",
      "transmission": "Manual",
      "color": "Blue",
      "status": "Run & Drive",
      "title": "2021 TOYOTA TACOMA TRD SPORT",
      "vin": "3TYCZ5AN7MT008274",
      "engine": "3.5l v-6 di, dohc, vvt, 278hp",
      "engine_size": 3.5,
      "location": "Northern Virginia (VA)",
      "location_old": "northern virginia (va)",
      "location_id": 292,
      "country": "usa",
      "document": "Salvage",
      "document_old": "Salvage (Virginia)",
      "currency": "usd",
      "seller": "State Farm Insurance",
      "is_buynow": true,
      "iaai_360": "https://vis.iaai.com/Home/ThreeSixtyView?keys=SID-42583272~STP-1~INT-1&iframeview=true",
      "copart_exterior_360": [],
      "copart_interior_360": null,
      "video": "https://mediastorageaccountprod.blob.core.windows.net/media/42583272_VES-100_1",
      "link_img_hd": [
        "https://vis.iaai.com/deepzoom?imageKey=42583272~SID~B723~S0~I1~RW2576~H1932~TH0&level=12&x=0&y=0&overlap=0&tilesize=5000"
      ],
      "link_img_small": [
        "https://vis.iaai.com/resizer?imageKeys=42583272~SID~B723~S0~I1~RW2576~H1932~TH0&width=845&height=633"
      ],
      "is_offsite": false,
      "location_offsite": null,
      "link": "https://www.iaai.com/VehicleDetail/42583272~US",
      "vehicle_score": "40/50",
      "seller_type": "insurance",
      "sale_history": [
        {
          "id": "61253923",
          "lot_id": 42091508,
          "site": 2,
          "base_site": "iaai",
          "vin": "3TYCZ5AN7MT008274",
          "sale_status": "Sold",
          "sale_date": "2025-05-31T07:58:15.000Z",
          "purchase_price": 16750,
          "is_buynow": false,
          "buyer_state": null,
          "buyer_country": null,
          "vehicle_type": "truck",
          "rec": 0,
          "created_at": "2025-06-01T04:07:59.421Z",
          "updated_at": "2025-06-01T04:07:59.421Z"
        }
      ],
      "sale_date": "2025-05-31T07:58:15.000Z",
      "sale_status": "Sold",
      "purchase_price": 16750,
      "created_at": "2025-04-22T17:12:32.000Z",
      "updated_at": "2025-06-01T04:07:59.476Z"
    },
    {
      "id": "41768412-2",
      "lot_id": 41768412,
      "site": 2,
      "base_site": "iaai",
      "salvage_id": 42259414,
      "odometer": 98744,
      "price_new": 3250,
      "price_future": 3250,
      "reserve_price": 3250,
      "cost_priced": 27136,
      "cost_repair": null,
      "year": 2018,
      "cylinders": 6,
      "state": "MS",
      "vehicle_type": "Automobile",
      "auction_type": "Buynow",
      "make": "Toyota",
      "make_old": "toyota",
      "model": "Tacoma",
      "model_old": "tacoma",
      "series": "Sr5 V6",
      "series_old": "sr5 v6",
      "damage_pr": "Front & Rear",
      "damage_sec": "Rollover",
      "keys": "Yes",
      "odobrand": "Actual",
      "fuel": "Gasoline",
      "drive": "Unknown",
      "transmission": "Automatic",
      "color": "Grey",
      "status": "Stationary",
      "title": "2018 TOYOTA TACOMA SR5 V6",
      "vin": "3TMAZ5CN6JM069319",
      "engine": "3.5l v-6 di, dohc, vvt, 278hp",
      "engine_size": 3.5,
      "location": "Grenada (MS)",
      "location_old": "grenada (ms)",
      "location_id": 156,
      "country": "usa",
      "document": "Salvage",
      "document_old": "Salvage (Mississippi)",
      "currency": "usd",
      "seller": "Alfa Insurance Group",
      "is_buynow": true,
      "iaai_360": null,
      "copart_exterior_360": [],
      "copart_interior_360": null,
      "video": null,
      "link_img_hd": [
        "https://vis.iaai.com/deepzoom?imageKey=42259414~SID~B428~S0~I1~RW2576~H1932~TH0&level=12&x=0&y=0&overlap=0&tilesize=5000"
      ],
      "link_img_small": [
        "https://vis.iaai.com/resizer?imageKeys=42259414~SID~B428~S0~I1~RW2576~H1932~TH0&width=845&height=633"
      ],
      "is_offsite": false,
      "location_offsite": null,
      "link": "https://www.iaai.com/VehicleDetail/42259414~US",
      "vehicle_score": "8/50",
      "seller_type": "insurance",
      "sale_history": [
        {
          "id": "61253548",
          "lot_id": 41768412,
          "site": 2,
          "base_site": "iaai",
          "vin": "3TMAZ5CN6JM069319",
          "sale_status": "Sold",
          "sale_date": "2025-05-31T06:45:11.000Z",
          "purchase_price": 3250,
          "is_buynow": false,
          "buyer_state": null,
          "buyer_country": null,
          "vehicle_type": "truck",
          "rec": 0,
          "created_at": "2025-06-01T04:09:48.111Z",
          "updated_at": "2025-06-01T04:09:48.111Z"
        }
      ],
      "sale_date": "2025-05-31T06:45:11.000Z",
      "sale_status": "Sold",
      "purchase_price": 3250,
      "created_at": "2025-03-12T13:27:38.000Z",
      "updated_at": "2025-06-01T04:09:48.172Z"
    },
    {
      "id": "41592670-2",
      "lot_id": 41592670,
      "site": 2,
      "base_site": "iaai",
      "salvage_id": 42083448,
      "odometer": 18862,
      "price_new": 11475,
      "price_future": 11475,
      "reserve_price": 11475,
      "cost_priced": 28596,
      "cost_repair": null,
      "year": 2021,
      "cylinders": 4,
      "state": "TX",
      "vehicle_type": "Automobile",
      "auction_type": "Buynow",
      "make": "Toyota",
      "make_old": "toyota",
      "model": "Tacoma",
      "model_old": "tacoma",
      "series": "Sr",
      "series_old": "sr",
      "damage_pr": "Front End",
      "damage_sec": "Front End",
      "keys": "Yes",
      "odobrand": "Actual",
      "fuel": "Gasoline",
      "drive": "Unknown",
      "transmission": "Automatic",
      "color": "Silver",
      "status": "Run & Drive",
      "title": "2021 TOYOTA TACOMA SR",
      "vin": "3TYAX5GN0MT020061",
      "engine": "2.7l i-4 dohc, vvt, 159hp",
      "engine_size": 2.7,
      "location": "Houston-North (TX)",
      "location_old": "houston-north (tx)",
      "location_id": 19,
      "country": "usa",
      "document": "Salvage",
      "document_old": "Salvage Title (Texas)",
      "currency": "usd",
      "seller": "State Farm Insurance",
      "is_buynow": true,
      "iaai_360": "https://vis.iaai.com/Home/ThreeSixtyView?keys=SID-42083448~STP-1~INT-1&iframeview=true",
      "copart_exterior_360": [],
      "copart_interior_360": null,
      "video": "https://mediastorageaccountprod.blob.core.windows.net/media/42083448_VES-100_1",
      "link_img_hd": [
        "https://vis.iaai.com/deepzoom?imageKey=42083448~SID~B440~S1~I1~RW2576~H1932~TH0&level=12&x=0&y=0&overlap=0&tilesize=5000"
      ],
      "link_img_small": [
        "https://vis.iaai.com/resizer?imageKeys=42083448~SID~B440~S1~I1~RW2576~H1932~TH0&width=845&height=633"
      ],
      "is_offsite": false,
      "location_offsite": null,
      "link": "https://www.iaai.com/VehicleDetail/42083448~US",
      "vehicle_score": "27/50",
      "seller_type": "insurance",
      "sale_history": [
        {
          "id": "61253556",
          "lot_id": 41592670,
          "site": 2,
          "base_site": "iaai",
          "vin": "3TYAX5GN0MT020061",
          "sale_status": "Sold",
          "sale_date": "2025-05-31T06:45:11.000Z",
          "purchase_price": 11475,
          "is_buynow": false,
          "buyer_state": null,
          "buyer_country": null,
          "vehicle_type": "truck",
          "rec": 0,
          "created_at": "2025-06-01T04:10:07.705Z",
          "updated_at": "2025-06-01T04:10:07.705Z"
        }
      ],
      "sale_date": "2025-05-31T06:45:11.000Z",
      "sale_status": "Sold",
      "purchase_price": 11475,
      "created_at": "2025-02-20T10:36:09.000Z",
      "updated_at": "2025-06-01T04:10:07.791Z"
    },
    {
      "id": "39852230-2",
      "lot_id": 39852230,
      "site": 2,
      "base_site": "iaai",
      "salvage_id": null,
      "odometer": 75008,
      "price_new": null,
      "price_future": null,
      "reserve_price": null,
      "cost_priced": null,
      "cost_repair": null,
      "year": 2019,
      "cylinders": 6,
      "state": "CA",
      "vehicle_type": "Truck",
      "auction_type": "Auction",
      "make": "Toyota",
      "make_old": "Toyota",
      "model": "Tacoma",
      "model_old": "Tacoma",
      "series": "Trd Sport",
      "series_old": "TRD SPORT",
      "damage_pr": "Front End",
      "damage_sec": "Rear End",
      "keys": "Yes",
      "odobrand": "Not Actual",
      "fuel": "Gasoline",
      "drive": "Unknown",
      "transmission": "Automatic",
      "color": "Other",
      "status": "Unknown",
      "title": "2019 TOYOTA TACOMA TRD SPORT",
      "vin": "3TMBZ5DN0KM022291",
      "engine": "3.5l v-6 di, dohc, vvt, 278hp",
      "engine_size": 3.5,
      "location": "Anaheim Consolidated (CA)",
      "location_old": "Anaheim Consolidated (CA)",
      "location_id": 830,
      "country": "usa",
      "document": "Other",
      "document_old": "Other",
      "currency": "usd",
      "seller": "Mercury Insurance",
      "is_buynow": false,
      "iaai_360": "https://vis.iaai.com/Home/ThreeSixtyView?keys=SID-40338999~STP-1~INT-1&iframeview=true",
      "copart_exterior_360": [],
      "copart_interior_360": null,
      "video": "https://mediastorageaccountprod.blob.core.windows.net/media/40338999_VES-100_1",
      "link_img_hd": [
        "https://vis.iaai.com/deepzoom?imageKey=40338999~SID~B131~S0~I1~RW2576~H1932~TH0&level=12&x=0&y=0&overlap=0&tilesize=5000"
      ],
      "link_img_small": [
        "https://vis.iaai.com/resizer?imageKeys=40338999~SID~B131~S0~I1~RW2576~H1932~TH0&width=845&height=633"
      ],
      "is_offsite": false,
      "location_offsite": null,
      "link": null,
      "vehicle_score": null,
      "seller_type": null,
      "sale_history": [
        {
          "id": "61251119",
          "lot_id": 56037105,
          "site": 1,
          "base_site": "copart",
          "vin": "3TMBZ5DN0KM022291",
          "sale_status": "ON APPROVAL",
          "sale_date": "2025-05-30T19:00:00.000Z",
          "purchase_price": 14100,
          "is_buynow": false,
          "buyer_state": "GH",
          "buyer_country": "GHA",
          "vehicle_type": "truck",
          "rec": 0,
          "created_at": "2025-05-31T04:08:53.724Z",
          "updated_at": "2025-06-01T04:05:45.929Z"
        }
      ],
      "sale_date": "2025-05-30T19:00:00.000Z",
      "sale_status": "ON APPROVAL",
      "purchase_price": 14100,
      "created_at": "2024-08-27T04:05:01.941Z",
      "updated_at": "2025-06-01T04:05:45.976Z"
    },
    {
      "id": "42021199-2",
      "lot_id": 42021199,
      "site": 2,
      "base_site": "iaai",
      "salvage_id": 42512750,
      "odometer": 109267,
      "price_new": null,
      "price_future": null,
      "reserve_price": null,
      "cost_priced": 21032,
      "cost_repair": null,
      "year": 2016,
      "cylinders": 6,
      "state": "AK",
      "vehicle_type": "Automobile",
      "auction_type": "Auction",
      "make": "Toyota",
      "make_old": "toyota",
      "model": "Tacoma",
      "model_old": "tacoma",
      "series": "Sr5 V6",
      "series_old": "sr5 v6",
      "damage_pr": "Front End",
      "damage_sec": "Unknown",
      "keys": "Yes",
      "odobrand": "Actual",
      "fuel": "Gasoline",
      "drive": "All Wheel Drive",
      "transmission": "Automatic",
      "color": "Grey",
      "status": "Stationary",
      "title": "2016 TOYOTA TACOMA SR5 V6",
      "vin": "3TMDZ5BNXGM002097",
      "engine": "3.5l v-6 di, dohc, vvt, 278hp",
      "engine_size": 3.5,
      "location": "Anchorage (AK)",
      "location_old": "anchorage (ak)",
      "location_id": 284,
      "country": "usa",
      "document": "Other",
      "document_old": "Bill Of Sale (Alaska)",
      "currency": "usd",
      "seller": "State Farm Insurance",
      "is_buynow": false,
      "iaai_360": "https://vis.iaai.com/Home/ThreeSixtyView?keys=SID-42512750~STP-1~INT-1&iframeview=true",
      "copart_exterior_360": [],
      "copart_interior_360": null,
      "video": null,
      "link_img_hd": [
        "https://vis.iaai.com/deepzoom?imageKey=42512750~SID~B372~S0~I1~RW2576~H1932~TH0&level=12&x=0&y=0&overlap=0&tilesize=5000"
      ],
      "link_img_small": [
        "https://vis.iaai.com/resizer?imageKeys=42512750~SID~B372~S0~I1~RW2576~H1932~TH0&width=845&height=633"
      ],
      "is_offsite": false,
      "location_offsite": null,
      "link": "https://www.iaai.com/VehicleDetail/42512750~US",
      "vehicle_score": "18/50",
      "seller_type": "insurance",
      "sale_history": [
        {
          "id": "61247928",
          "lot_id": 42021199,
          "site": 2,
          "base_site": "iaai",
          "vin": "3TMDZ5BNXGM002097",
          "sale_status": "ON APPROVAL",
          "sale_date": "2025-05-30T17:30:00.000Z",
          "purchase_price": 5600,
          "is_buynow": false,
          "buyer_state": null,
          "buyer_country": null,
          "vehicle_type": "truck",
          "rec": 0,
          "created_at": "2025-05-31T04:13:14.238Z",
          "updated_at": "2025-06-01T04:08:46.654Z"
        }
      ],
      "sale_date": "2025-05-30T17:30:00.000Z",
      "sale_status": "ON APPROVAL",
      "purchase_price": 5600,
      "created_at": "2025-04-12T07:33:28.000Z",
      "updated_at": "2025-06-01T04:08:46.729Z"
    },
    {
      "id": "41271926-2",
      "lot_id": 41271926,
      "site": 2,
      "base_site": "iaai",
      "salvage_id": 41762277,
      "odometer": 262572,
      "price_new": null,
      "price_future": null,
      "reserve_price": null,
      "cost_priced": 8550,
      "cost_repair": null,
      "year": 2009,
      "cylinders": 6,
      "state": "LA",
      "vehicle_type": "Automobile",
      "auction_type": "Auction",
      "make": "Toyota",
      "make_old": "toyota",
      "model": "Tacoma",
      "model_old": "tacoma",
      "series": "Prerunner V6",
      "series_old": "prerunner v6",
      "damage_pr": "Normal Wear",
      "damage_sec": "Unknown",
      "keys": "Yes",
      "odobrand": "Actual",
      "fuel": "Gasoline",
      "drive": "Unknown",
      "transmission": "Automatic",
      "color": "Brown",
      "status": "Starts",
      "title": "2009 TOYOTA TACOMA PRERUNNER V6",
      "vin": "3TMJU62N39M082384",
      "engine": "4.0l v-6 dohc, vvt, 236hp",
      "engine_size": 4,
      "location": "New Orleans East (LA)",
      "location_old": "new orleans east (la)",
      "location_id": 299,
      "country": "usa",
      "document": "Other",
      "document_old": null,
      "currency": "usd",
      "seller": null,
      "is_buynow": false,
      "iaai_360": "https://vis.iaai.com/Home/ThreeSixtyView?keys=SID-41762277~STP-1~INT-1&iframeview=true",
      "copart_exterior_360": [],
      "copart_interior_360": null,
      "video": null,
      "link_img_hd": [
        "https://vis.iaai.com/deepzoom?imageKey=41762277~SID~B432~S0~I1~RW2576~H1932~TH0&level=12&x=0&y=0&overlap=0&tilesize=5000"
      ],
      "link_img_small": [
        "https://vis.iaai.com/resizer?imageKeys=41762277~SID~B432~S0~I1~RW2576~H1932~TH0&width=845&height=633"
      ],
      "is_offsite": false,
      "location_offsite": null,
      "link": "https://www.iaai.com/VehicleDetail/41762277~US",
      "vehicle_score": "47/50",
      "seller_type": "dealer",
      "sale_history": [
        {
          "id": "61248706",
          "lot_id": 58081085,
          "site": 1,
          "base_site": "copart",
          "vin": "3TMJU62N39M082384",
          "sale_status": "ON APPROVAL",
          "sale_date": "2025-05-30T17:00:00.000Z",
          "purchase_price": 4100,
          "is_buynow": false,
          "buyer_state": "NG",
          "buyer_country": "NGA",
          "vehicle_type": "truck",
          "rec": 0,
          "created_at": "2025-05-31T04:05:41.918Z",
          "updated_at": "2025-06-01T04:03:23.334Z"
        }
      ],
      "sale_date": "2025-05-30T17:00:00.000Z",
      "sale_status": "ON APPROVAL",
      "purchase_price": 4100,
      "created_at": "2025-01-09T16:51:52.000Z",
      "updated_at": "2025-06-01T04:03:23.416Z"
    },
    {
      "id": "42126750-2",
      "lot_id": 42126750,
      "site": 2,
      "base_site": "iaai",
      "salvage_id": 42618610,
      "odometer": 78798,
      "price_new": 11600,
      "price_future": 11600,
      "reserve_price": 11600,
      "cost_priced": 25200,
      "cost_repair": null,
      "year": 2020,
      "cylinders": 6,
      "state": "IA",
      "vehicle_type": "Automobile",
      "auction_type": "Buynow",
      "make": "Toyota",
      "make_old": "toyota",
      "model": "Tacoma",
      "model_old": "tacoma",
      "series": "Trd Sport",
      "series_old": "trd sport",
      "damage_pr": "Front End",
      "damage_sec": "Unknown",
      "keys": "Yes",
      "odobrand": "Actual",
      "fuel": "Gasoline",
      "drive": "All Wheel Drive",
      "transmission": "Automatic",
      "color": "Beige",
      "status": "Run & Drive",
      "title": "2020 TOYOTA TACOMA TRD SPORT",
      "vin": "5TFSZ5ANXLX216407",
      "engine": "3.5l v-6 di, dohc, vvt, 278hp",
      "engine_size": 3.5,
      "location": "Des Moines (IA)",
      "location_old": "des moines (ia)",
      "location_id": 100,
      "country": "usa",
      "document": "Salvage",
      "document_old": "Salvage (Iowa)",
      "currency": "usd",
      "seller": null,
      "is_buynow": true,
      "iaai_360": "https://vis.iaai.com/Home/ThreeSixtyView?keys=SID-42618610~STP-1~INT-1&iframeview=true",
      "copart_exterior_360": [],
      "copart_interior_360": null,
      "video": "https://mediastorageaccountprod.blob.core.windows.net/media/42618610_VES-100_1",
      "link_img_hd": [
        "https://vis.iaai.com/deepzoom?imageKey=42618610~SID~B536~S0~I1~RW2576~H1932~TH0&level=12&x=0&y=0&overlap=0&tilesize=5000"
      ],
      "link_img_small": [
        "https://vis.iaai.com/resizer?imageKeys=42618610~SID~B536~S0~I1~RW2576~H1932~TH0&width=845&height=633"
      ],
      "is_offsite": false,
      "location_offsite": null,
      "link": "https://www.iaai.com/VehicleDetail/42618610~US",
      "vehicle_score": null,
      "seller_type": "dealer",
      "sale_history": [
        {
          "id": "61246638",
          "lot_id": 58384255,
          "site": 1,
          "base_site": "copart",
          "vin": "5TFSZ5ANXLX216407",
          "sale_status": "ON APPROVAL",
          "sale_date": "2025-05-30T17:00:00.000Z",
          "purchase_price": 7200,
          "is_buynow": false,
          "buyer_state": "NE",
          "buyer_country": "USA",
          "vehicle_type": "truck",
          "rec": 0,
          "created_at": "2025-05-31T04:05:35.286Z",
          "updated_at": "2025-06-01T04:03:19.552Z"
        }
      ],
      "sale_date": "2025-05-30T17:00:00.000Z",
      "sale_status": "ON APPROVAL",
      "purchase_price": 7200,
      "created_at": "2025-04-26T04:13:10.000Z",
      "updated_at": "2025-06-01T04:03:19.628Z"
    }
  ]
}