{
  "size": 10,
  "page": 1,
  "pages": 9131,
  "count": 91302,
  "data": [
    {
      "id": "56349955-1",
      "lot_id": 56349955,
      "site": 1,
      "base_site": "copart",
      "salvage_id": null,
      "odometer": 253517,
      "price_new": 7500,
      "price_future": 7500,
      "reserve_price": 7500,
      "cost_priced": null,
      "cost_repair": null,
      "year": 2009,
      "cylinders": 6,
      "state": "NJ",
      "vehicle_type": "Automobile",
      "auction_type": "Buynow",
      "make": "Toyota",
      "make_old": "toyota",
      "model": "Tacoma",
      "model_old": "tacoma",
      "series": "Double Cab Long Bed",
      "series_old": "double cab long bed",
      "damage_pr": "Minor Dent/Scratches",
      "damage_sec": "Rear End",
      "keys": "Yes",
      "odobrand": "Actual",
      "fuel": "Flexible Fuel",
      "drive": "All Wheel Drive",
      "transmission": "Automatic",
      "color": "Black",
      "status": "Run & Drive",
      "title": "2009 TOYOTA TACOMA DOUBLE CAB LONG BED",
      "vin": "3TMMU52N39M015372",
      "engine": "4.0l 6",
      "engine_size": 4,
      "location": "NJ - Somerville",
      "location_old": "nj - somerville",
      "location_id": 2,
      "country": "usa",
      "document": "Clean",
      "document_old": "NJ - CERTIFICATE OF TITLE (P)",
      "currency": "usd",
      "seller": null,
      "is_buynow": true,
      "iaai_360": null,
      "copart_exterior_360": [],
      "copart_interior_360": null,
      "video": null,
      "link_img_hd": [
        "https://cs.copart.com/v1/AUTH_svc.pdoc00001/ids-c-prod-lpp/0525/d6e938e189084928b7ae43be854465b1_hrs.jpg"
      ],
      "link_img_small": [
        "https://cs.copart.com/v1/AUTH_svc.pdoc00001/ids-c-prod-lpp/0525/d6e938e189084928b7ae43be854465b1_hrs.jpg"
      ],
      "is_offsite": true,
      "location_offsite": "NJ - SOMERVILLE,\nHILLSBOROUGH,\n08844,\n4662",
      "link": "https://www.copart.com/lot/56349955",
      "vehicle_score": null,
      "seller_type": "dealer",
      "sale_history": [
        {
          "id": "60954739",
          "lot_id": 56696545,
          "site": 1,
          "base_site": "copart",
          "vin": "3TMMU52N39M015372",
          "sale_status": "ON APPROVAL",
          "sale_date": "2025-05-21T01:00:00.000Z",
          "purchase_price": 6700,
          "is_buynow": false,
          "buyer_state": "XX",
          "buyer_country": "   ",
          "vehicle_type": "truck",
          "rec": 0,
          "created_at": "2025-05-21T04:05:35.011Z",
          "updated_at": "2025-05-21T04:05:35.011Z"
        }
      ],
      "sale_date": "2025-05-21T01:00:00.000Z",
      "sale_status": "ON APPROVAL",
      "purchase_price": 6700,
      "created_at": "2025-05-07T18:38:47.000Z",
      "updated_at": "2025-05-21T04:05:35.046Z"
    },
    {
      "id": "74388594-1",
      "lot_id": 74388594,
      "site": 1,
      "base_site": "copart",
      "salvage_id": null,
      "odometer": 0,
      "price_new": null,
      "price_future": null,
      "reserve_price": null,
      "cost_priced": 39188,
      "cost_repair": null,
      "year": 2022,
      "cylinders": 6,
      "state": "CA",
      "vehicle_type": "Automobile",
      "auction_type": "Auction",
      "make": "Toyota",
      "make_old": "toyota",
      "model": "Tacoma",
      "model_old": "tacoma",
      "series": "Double Cab",
      "series_old": "double cab",
      "damage_pr": "Front End",
      "damage_sec": "Rear End",
      "keys": "Yes",
      "odobrand": "Not Actual",
      "fuel": "Flexible Fuel",
      "drive": "All Wheel Drive",
      "transmission": "Automatic",
      "color": "Red",
      "status": "Stationary",
      "title": "2022 TOYOTA TACOMA DOUBLE CAB",
      "vin": "3TMCZ5AN4NM499724",
      "engine": "3.5l 6",
      "engine_size": 3.5,
      "location": "CA - Los Angeles",
      "location_old": "ca - los angeles",
      "location_id": 171,
      "country": "usa",
      "document": "Salvage",
      "document_old": "CA - SALVAGE CERTIFICATE",
      "currency": "usd",
      "seller": null,
      "is_buynow": false,
      "iaai_360": null,
      "copart_exterior_360": [],
      "copart_interior_360": null,
      "video": null,
      "link_img_hd": [
        "https://cs.copart.com/v1/AUTH_svc.pdoc00001/ids-c-prod-lpp/1024/dca12b1dfabc4639b0ef580d70932f80_hrs.jpg"
      ],
      "link_img_small": [
        "https://cs.copart.com/v1/AUTH_svc.pdoc00001/ids-c-prod-lpp/1024/dca12b1dfabc4639b0ef580d70932f80_hrs.jpg"
      ],
      "is_offsite": false,
      "location_offsite": null,
      "link": "https://www.copart.com/lot/74388594",
      "vehicle_score": null,
      "seller_type": "insurance",
      "sale_history": [
        {
          "id": "60948250",
          "lot_id": 53697015,
          "site": 1,
          "base_site": "copart",
          "vin": "3TMCZ5AN4NM499724",
          "sale_status": "ON APPROVAL",
          "sale_date": "2025-05-21T01:00:00.000Z",
          "purchase_price": 12600,
          "is_buynow": false,
          "buyer_state": "PA",
          "buyer_country": "USA",
          "vehicle_type": "truck",
          "rec": 0,
          "created_at": "2025-05-21T04:08:35.198Z",
          "updated_at": "2025-05-21T04:08:35.198Z"
        }
      ],
      "sale_date": "2025-05-21T01:00:00.000Z",
      "sale_status": "ON APPROVAL",
      "purchase_price": 12600,
      "created_at": "2024-10-04T20:41:10.000Z",
      "updated_at": "2025-05-21T04:08:35.233Z"
    },
    {
      "id": "53697015-1",
      "lot_id": 53697015,
      "site": 1,
      "base_site": "copart",
      "salvage_id": null,
      "odometer": 27470,
      "price_new": null,
      "price_future": 18300,
      "reserve_price": 18300,
      "cost_priced": 41395,
      "cost_repair": null,
      "year": 2022,
      "cylinders": 6,
      "state": "UT",
      "vehicle_type": "Automobile",
      "auction_type": "Buynow",
      "make": "Toyota",
      "make_old": "toyota",
      "model": "Tacoma",
      "model_old": "tacoma",
      "series": "Double Cab",
      "series_old": "double cab",
      "damage_pr": "Front End",
      "damage_sec": "Unknown",
      "keys": "Yes",
      "odobrand": "Not Actual",
      "fuel": "Flexible Fuel",
      "drive": "All Wheel Drive",
      "transmission": "Automatic",
      "color": "Red",
      "status": "Run & Drive",
      "title": "2022 TOYOTA TACOMA DOUBLE CAB",
      "vin": "3TMCZ5AN4NM499724",
      "engine": "3.5l 6",
      "engine_size": 3.5,
      "location": "UT - Salt Lake City",
      "location_old": "ut - salt lake city",
      "location_id": 164,
      "country": "usa",
      "document": "Salvage",
      "document_old": "AZ - CERT OF TITLE - SALVAGE (P)",
      "currency": "usd",
      "seller": null,
      "is_buynow": false,
      "iaai_360": null,
      "copart_exterior_360": [],
      "copart_interior_360": null,
      "video": "https://cs.copart.com/v1/AUTH_svc.pdoc00001/ids-c-prod-lpp/0425/da600ce059934dfa91238a96373958a7_O.mp4",
      "link_img_hd": [
        "https://cs.copart.com/v1/AUTH_svc.pdoc00001/ids-c-prod-lpp/0425/8404aadea7ab4357bf92da245a1455e3_hrs.jpg"
      ],
      "link_img_small": [
        "https://cs.copart.com/v1/AUTH_svc.pdoc00001/ids-c-prod-lpp/0425/8404aadea7ab4357bf92da245a1455e3_hrs.jpg"
      ],
      "is_offsite": false,
      "location_offsite": null,
      "link": "https://www.copart.com/lot/53697015",
      "vehicle_score": null,
      "seller_type": "dealer",
      "sale_history": [
        {
          "id": "60948250",
          "lot_id": 53697015,
          "site": 1,
          "base_site": "copart",
          "vin": "3TMCZ5AN4NM499724",
          "sale_status": "ON APPROVAL",
          "sale_date": "2025-05-21T01:00:00.000Z",
          "purchase_price": 12600,
          "is_buynow": false,
          "buyer_state": "PA",
          "buyer_country": "USA",
          "vehicle_type": "truck",
          "rec": 0,
          "created_at": "2025-05-21T04:08:35.198Z",
          "updated_at": "2025-05-21T04:08:35.198Z"
        }
      ],
      "sale_date": "2025-05-21T01:00:00.000Z",
      "sale_status": "ON APPROVAL",
      "purchase_price": 12600,
      "created_at": "2025-04-18T22:24:26.000Z",
      "updated_at": "2025-05-21T04:08:35.233Z"
    },
    {
      "id": "56696545-1",
      "lot_id": 56696545,
      "site": 1,
      "base_site": "copart",
      "salvage_id": null,
      "odometer": 253517,
      "price_new": null,
      "price_future": 7500,
      "reserve_price": 7500,
      "cost_priced": null,
      "cost_repair": null,
      "year": 2009,
      "cylinders": 6,
      "state": "NJ",
      "vehicle_type": "Automobile",
      "auction_type": "Buynow",
      "make": "Toyota",
      "make_old": "toyota",
      "model": "Tacoma",
      "model_old": "tacoma",
      "series": "Double Cab Long Bed",
      "series_old": "double cab long bed",
      "damage_pr": "Minor Dent/Scratches",
      "damage_sec": "Normal Wear",
      "keys": "Yes",
      "odobrand": "Actual",
      "fuel": "Flexible Fuel",
      "drive": "All Wheel Drive",
      "transmission": "Automatic",
      "color": "Black",
      "status": "Run & Drive",
      "title": "2009 TOYOTA TACOMA DOUBLE CAB LONG BED",
      "vin": "3TMMU52N39M015372",
      "engine": "4.0l 6",
      "engine_size": 4,
      "location": "NJ - Somerville",
      "location_old": "nj - somerville",
      "location_id": 2,
      "country": "usa",
      "document": "Clean",
      "document_old": "NJ - CERTIFICATE OF TITLE (P)",
      "currency": "usd",
      "seller": null,
      "is_buynow": false,
      "iaai_360": null,
      "copart_exterior_360": [],
      "copart_interior_360": null,
      "video": null,
      "link_img_hd": [
        "https://cs.copart.com/v1/AUTH_svc.pdoc00001/ids-c-prod-lpp/0525/e0e4ce3e4b584a4ca76b812003a260f8_hrs.jpg"
      ],
      "link_img_small": [
        "https://cs.copart.com/v1/AUTH_svc.pdoc00001/ids-c-prod-lpp/0525/e0e4ce3e4b584a4ca76b812003a260f8_hrs.jpg"
      ],
      "is_offsite": true,
      "location_offsite": "NJ - SOMERVILLE,\nHILLSBOROUGH,\n08844,\n4662",
      "link": "https://www.copart.com/lot/56696545",
      "vehicle_score": null,
      "seller_type": "dealer",
      "sale_history": [
        {
          "id": "60954739",
          "lot_id": 56696545,
          "site": 1,
          "base_site": "copart",
          "vin": "3TMMU52N39M015372",
          "sale_status": "ON APPROVAL",
          "sale_date": "2025-05-21T01:00:00.000Z",
          "purchase_price": 6700,
          "is_buynow": false,
          "buyer_state": "XX",
          "buyer_country": "   ",
          "vehicle_type": "truck",
          "rec": 0,
          "created_at": "2025-05-21T04:05:35.011Z",
          "updated_at": "2025-05-21T04:05:35.011Z"
        }
      ],
      "sale_date": "2025-05-21T01:00:00.000Z",
      "sale_status": "ON APPROVAL",
      "purchase_price": 6700,
      "created_at": "2025-05-09T17:46:03.000Z",
      "updated_at": "2025-05-21T04:05:35.046Z"
    },
    {
      "id": "52570525-1",
      "lot_id": 52570525,
      "site": 1,
      "base_site": "copart",
      "salvage_id": null,
      "odometer": 197751,
      "price_new": null,
      "price_future": 6500,
      "reserve_price": 6500,
      "cost_priced": null,
      "cost_repair": null,
      "year": 2013,
      "cylinders": 6,
      "state": "SC",
      "vehicle_type": "Automobile",
      "auction_type": "Buynow",
      "make": "Toyota",
      "make_old": "toyota",
      "model": "Tacoma",
      "model_old": "tacoma",
      "series": "Double Cab Prerunner",
      "series_old": "double cab prerunner",
      "damage_pr": "Front End",
      "damage_sec": "Minor Dent/Scratches",
      "keys": "Yes",
      "odobrand": "Actual",
      "fuel": "Flexible Fuel",
      "drive": "Rear Wheel Drive",
      "transmission": "Automatic",
      "color": "Black",
      "status": "Stationary",
      "title": "2013 TOYOTA TACOMA DOUBLE CAB PRERUNNER",
      "vin": "5TFJU4GN3DX038577",
      "engine": "4.0l 6",
      "engine_size": 4,
      "location": "SC - Columbia",
      "location_old": "sc - columbia",
      "location_id": 192,
      "country": "usa",
      "document": "Clean",
      "document_old": "GA - CERTIFICATE OF TITLE (P)",
      "currency": "usd",
      "seller": null,
      "is_buynow": false,
      "iaai_360": null,
      "copart_exterior_360": [],
      "copart_interior_360": null,
      "video": null,
      "link_img_hd": [
        "https://cs.copart.com/v1/AUTH_svc.pdoc00001/ids-c-prod-lpp/0425/45b8930f5a7745f6951ff223d12fa443_hrs.jpg"
      ],
      "link_img_small": [
        "https://cs.copart.com/v1/AUTH_svc.pdoc00001/ids-c-prod-lpp/0425/45b8930f5a7745f6951ff223d12fa443_hrs.jpg"
      ],
      "is_offsite": false,
      "location_offsite": null,
      "link": "https://www.copart.com/lot/52570525",
      "vehicle_score": null,
      "seller_type": "dealer",
      "sale_history": [
        {
          "id": "60948194",
          "lot_id": 52570525,
          "site": 1,
          "base_site": "copart",
          "vin": "5TFJU4GN3DX038577",
          "sale_status": "ON APPROVAL",
          "sale_date": "2025-05-21T01:00:00.000Z",
          "purchase_price": 5800,
          "is_buynow": false,
          "buyer_state": "XX",
          "buyer_country": "   ",
          "vehicle_type": "truck",
          "rec": 0,
          "created_at": "2025-05-21T04:09:49.957Z",
          "updated_at": "2025-05-21T04:09:49.957Z"
        }
      ],
      "sale_date": "2025-05-21T01:00:00.000Z",
      "sale_status": "ON APPROVAL",
      "purchase_price": 5800,
      "created_at": "2025-04-09T20:25:09.000Z",
      "updated_at": "2025-05-21T04:09:49.981Z"
    },
    {
      "id": "56245825-1",
      "lot_id": 56245825,
      "site": 1,
      "base_site": "copart",
      "salvage_id": null,
      "odometer": 46953,
      "price_new": null,
      "price_future": null,
      "reserve_price": null,
      "cost_priced": null,
      "cost_repair": null,
      "year": 2022,
      "cylinders": 4,
      "state": "MA",
      "vehicle_type": "Automobile",
      "auction_type": "Auction",
      "make": "Toyota",
      "make_old": "toyota",
      "model": "Tacoma",
      "model_old": "tacoma",
      "series": "Access Cab",
      "series_old": "access cab",
      "damage_pr": "Normal Wear",
      "damage_sec": "Unknown",
      "keys": "Yes",
      "odobrand": "Actual",
      "fuel": "Flexible Fuel",
      "drive": "Rear Wheel Drive",
      "transmission": "Automatic",
      "color": "Green",
      "status": "Run & Drive",
      "title": "2022 TOYOTA TACOMA ACCESS CAB",
      "vin": "3TYRX5GN9NT057386",
      "engine": "2.7l 4",
      "engine_size": 2.7,
      "location": "MA - North Boston",
      "location_old": "ma - north boston",
      "location_id": 4,
      "country": "usa",
      "document": "Clean",
      "document_old": "MA - CERTIFICATE OF TITLE (P)",
      "currency": "usd",
      "seller": null,
      "is_buynow": false,
      "iaai_360": null,
      "copart_exterior_360": [],
      "copart_interior_360": null,
      "video": null,
      "link_img_hd": [
        "https://cs.copart.com/v1/AUTH_svc.pdoc00001/ids-c-prod-lpp/0525/7393cd0bd3344f2188147e53b8bcee9c_hrs.jpg"
      ],
      "link_img_small": [
        "https://cs.copart.com/v1/AUTH_svc.pdoc00001/ids-c-prod-lpp/0525/7393cd0bd3344f2188147e53b8bcee9c_hrs.jpg"
      ],
      "is_offsite": true,
      "location_offsite": "NA,\nMETHUEN,\n01844",
      "link": "https://www.copart.com/lot/56245825",
      "vehicle_score": null,
      "seller_type": "dealer",
      "sale_history": [
        {
          "id": "60949468",
          "lot_id": 56245825,
          "site": 1,
          "base_site": "copart",
          "vin": "3TYRX5GN9NT057386",
          "sale_status": "ON APPROVAL",
          "sale_date": "2025-05-21T01:00:00.000Z",
          "purchase_price": 14400,
          "is_buynow": false,
          "buyer_state": "XX",
          "buyer_country": "   ",
          "vehicle_type": "truck",
          "rec": 0,
          "created_at": "2025-05-21T04:06:07.174Z",
          "updated_at": "2025-05-21T04:06:07.174Z"
        }
      ],
      "sale_date": "2025-05-21T01:00:00.000Z",
      "sale_status": "ON APPROVAL",
      "purchase_price": 14400,
      "created_at": "2025-05-07T00:05:50.000Z",
      "updated_at": "2025-05-21T04:06:07.192Z"
    },
    {
      "id": "55879585-1",
      "lot_id": 55879585,
      "site": 1,
      "base_site": "copart",
      "salvage_id": null,
      "odometer": 202617,
      "price_new": 8500,
      "price_future": 8500,
      "reserve_price": 8500,
      "cost_priced": null,
      "cost_repair": null,
      "year": 2012,
      "cylinders": 6,
      "state": "MA",
      "vehicle_type": "Automobile",
      "auction_type": "Buynow",
      "make": "Toyota",
      "make_old": "toyota",
      "model": "Tacoma",
      "model_old": "tacoma",
      "series": "Double Cab",
      "series_old": "double cab",
      "damage_pr": "Minor Dent/Scratches",
      "damage_sec": "Normal Wear",
      "keys": "Yes",
      "odobrand": "Actual",
      "fuel": "Flexible Fuel",
      "drive": "All Wheel Drive",
      "transmission": "Manual",
      "color": "Black",
      "status": "Run & Drive",
      "title": "2012 TOYOTA TACOMA DOUBLE CAB",
      "vin": "5TFLU4EN2CX029699",
      "engine": "4.0l 6",
      "engine_size": 4,
      "location": "MA - North Boston",
      "location_old": "ma - north boston",
      "location_id": 4,
      "country": "usa",
      "document": "Clean",
      "document_old": "MA - CERTIFICATE OF TITLE (P)",
      "currency": "usd",
      "seller": null,
      "is_buynow": true,
      "iaai_360": null,
      "copart_exterior_360": [],
      "copart_interior_360": null,
      "video": null,
      "link_img_hd": [
        "https://cs.copart.com/v1/AUTH_svc.pdoc00001/ids-c-prod-lpp/0525/7bfe20d510c947fc9e0c535c951c60f9_hrs.jpg"
      ],
      "link_img_small": [
        "https://cs.copart.com/v1/AUTH_svc.pdoc00001/ids-c-prod-lpp/0525/7bfe20d510c947fc9e0c535c951c60f9_hrs.jpg"
      ],
      "is_offsite": true,
      "location_offsite": "NA,\nKINGSTON,\n03848",
      "link": "https://www.copart.com/lot/55879585",
      "vehicle_score": null,
      "seller_type": "dealer",
      "sale_history": [
        {
          "id": "60948302",
          "lot_id": 55879585,
          "site": 1,
          "base_site": "copart",
          "vin": "5TFLU4EN2CX029699",
          "sale_status": "ON APPROVAL",
          "sale_date": "2025-05-21T01:00:00.000Z",
          "purchase_price": 6600,
          "is_buynow": false,
          "buyer_state": "XX",
          "buyer_country": "   ",
          "vehicle_type": "truck",
          "rec": 0,
          "created_at": "2025-05-21T04:06:17.945Z",
          "updated_at": "2025-05-21T04:06:17.945Z"
        }
      ],
      "sale_date": "2025-05-21T01:00:00.000Z",
      "sale_status": "ON APPROVAL",
      "purchase_price": 6600,
      "created_at": "2025-05-06T23:23:27.000Z",
      "updated_at": "2025-05-21T04:06:17.975Z"
    },
    {
      "id": "52280415-1",
      "lot_id": 52280415,
      "site": 1,
      "base_site": "copart",
      "salvage_id": null,
      "odometer": 183240,
      "price_new": null,
      "price_future": 5900,
      "reserve_price": 5900,
      "cost_priced": null,
      "cost_repair": null,
      "year": 2012,
      "cylinders": 4,
      "state": "CT",
      "vehicle_type": "Automobile",
      "auction_type": "Buynow",
      "make": "Toyota",
      "make_old": "toyota",
      "model": "Tacoma",
      "model_old": "tacoma",
      "series": null,
      "series_old": null,
      "damage_pr": "Minor Dent/Scratches",
      "damage_sec": "Unknown",
      "keys": "Yes",
      "odobrand": "Actual",
      "fuel": "Flexible Fuel",
      "drive": "Rear Wheel Drive",
      "transmission": "Manual",
      "color": "Grey",
      "status": "Run & Drive",
      "title": "2012 TOYOTA TACOMA",
      "vin": "5TFNX4CN3CX013448",
      "engine": "2.7l 4",
      "engine_size": 2.7,
      "location": "CT - Hartford Springfield",
      "location_old": "ct - hartford springfield",
      "location_id": 184,
      "country": "usa",
      "document": "Clean",
      "document_old": "NY - CERTIFICATE OF TITLE",
      "currency": "usd",
      "seller": null,
      "is_buynow": false,
      "iaai_360": null,
      "copart_exterior_360": [],
      "copart_interior_360": null,
      "video": null,
      "link_img_hd": [
        "https://cs.copart.com/v1/AUTH_svc.pdoc00001/ids-c-prod-lpp/0425/bfe5d76cbd964008adbe15fefe240e4e_hrs.jpg"
      ],
      "link_img_small": [
        "https://cs.copart.com/v1/AUTH_svc.pdoc00001/ids-c-prod-lpp/0425/bfe5d76cbd964008adbe15fefe240e4e_hrs.jpg"
      ],
      "is_offsite": false,
      "location_offsite": null,
      "link": "https://www.copart.com/lot/52280415",
      "vehicle_score": null,
      "seller_type": "dealer",
      "sale_history": [
        {
          "id": "60953995",
          "lot_id": 52280415,
          "site": 1,
          "base_site": "copart",
          "vin": "5TFNX4CN3CX013448",
          "sale_status": "ON APPROVAL",
          "sale_date": "2025-05-21T01:00:00.000Z",
          "purchase_price": 4750,
          "is_buynow": false,
          "buyer_state": "MO",
          "buyer_country": "USA",
          "vehicle_type": "truck",
          "rec": 0,
          "created_at": "2025-05-21T04:10:00.063Z",
          "updated_at": "2025-05-21T04:10:00.063Z"
        }
      ],
      "sale_date": "2025-05-21T01:00:00.000Z",
      "sale_status": "ON APPROVAL",
      "purchase_price": 4750,
      "created_at": "2025-04-07T14:05:12.000Z",
      "updated_at": "2025-05-21T04:10:00.098Z"
    },
    {
      "id": "44021405-1",
      "lot_id": 44021405,
      "site": 1,
      "base_site": "copart",
      "salvage_id": null,
      "odometer": 27470,
      "price_new": null,
      "price_future": null,
      "reserve_price": null,
      "cost_priced": 41395,
      "cost_repair": null,
      "year": 2022,
      "cylinders": 6,
      "state": "AZ",
      "vehicle_type": "Automobile",
      "auction_type": "Auction",
      "make": "Toyota",
      "make_old": "toyota",
      "model": "Tacoma",
      "model_old": "tacoma",
      "series": "Double Cab",
      "series_old": "double cab",
      "damage_pr": "Front End",
      "damage_sec": "Unknown",
      "keys": "Yes",
      "odobrand": "Not Actual",
      "fuel": "Flexible Fuel",
      "drive": "All Wheel Drive",
      "transmission": "Automatic",
      "color": "Red",
      "status": "Run & Drive",
      "title": "2022 TOYOTA TACOMA DOUBLE CAB",
      "vin": "3TMCZ5AN4NM499724",
      "engine": "3.5l 6",
      "engine_size": 3.5,
      "location": "AZ - Phoenix",
      "location_old": "az - phoenix",
      "location_id": 189,
      "country": "usa",
      "document": "Salvage",
      "document_old": "AZ - CERT OF TITLE - SALVAGE",
      "currency": "usd",
      "seller": null,
      "is_buynow": false,
      "iaai_360": null,
      "copart_exterior_360": [],
      "copart_interior_360": null,
      "video": null,
      "link_img_hd": [
        "https://cs.copart.com/v1/AUTH_svc.pdoc00001/ids-c-prod-lpp/0225/eb31a94d856b48aeb7ecee24bf34a53e_hrs.jpg"
      ],
      "link_img_small": [
        "https://cs.copart.com/v1/AUTH_svc.pdoc00001/ids-c-prod-lpp/0225/eb31a94d856b48aeb7ecee24bf34a53e_hrs.jpg"
      ],
      "is_offsite": false,
      "location_offsite": null,
      "link": "https://www.copart.com/lot/44021405",
      "vehicle_score": null,
      "seller_type": "dealer",
      "sale_history": [
        {
          "id": "60948250",
          "lot_id": 53697015,
          "site": 1,
          "base_site": "copart",
          "vin": "3TMCZ5AN4NM499724",
          "sale_status": "ON APPROVAL",
          "sale_date": "2025-05-21T01:00:00.000Z",
          "purchase_price": 12600,
          "is_buynow": false,
          "buyer_state": "PA",
          "buyer_country": "USA",
          "vehicle_type": "truck",
          "rec": 0,
          "created_at": "2025-05-21T04:08:35.198Z",
          "updated_at": "2025-05-21T04:08:35.198Z"
        }
      ],
      "sale_date": "2025-05-21T01:00:00.000Z",
      "sale_status": "ON APPROVAL",
      "purchase_price": 12600,
      "created_at": "2025-02-05T03:09:13.000Z",
      "updated_at": "2025-05-21T04:08:35.233Z"
    },
    {
      "id": "56635095-1",
      "lot_id": 56635095,
      "site": 1,
      "base_site": "copart",
      "salvage_id": null,
      "odometer": 116982,
      "price_new": null,
      "price_future": 8000,
      "reserve_price": 8000,
      "cost_priced": null,
      "cost_repair": null,
      "year": 2009,
      "cylinders": 6,
      "state": "MA",
      "vehicle_type": "Automobile",
      "auction_type": "Buynow",
      "make": "Toyota",
      "make_old": "toyota",
      "model": "Tacoma",
      "model_old": "tacoma",
      "series": "Access Cab",
      "series_old": "access cab",
      "damage_pr": "Minor Dent/Scratches",
      "damage_sec": "Unknown",
      "keys": "Yes",
      "odobrand": "Actual",
      "fuel": "Flexible Fuel",
      "drive": "All Wheel Drive",
      "transmission": "Manual",
      "color": "Black",
      "status": "Run & Drive",
      "title": "2009 TOYOTA TACOMA ACCESS CAB",
      "vin": "5TEUU42N79Z618399",
      "engine": "4.0l 6",
      "engine_size": 4,
      "location": "MA - North Boston",
      "location_old": "ma - north boston",
      "location_id": 4,
      "country": "usa",
      "document": "Clean",
      "document_old": "MA - CERTIFICATE OF TITLE (P)",
      "currency": "usd",
      "seller": null,
      "is_buynow": false,
      "iaai_360": null,
      "copart_exterior_360": [],
      "copart_interior_360": null,
      "video": null,
      "link_img_hd": [
        "https://cs.copart.com/v1/AUTH_svc.pdoc00001/ids-c-prod-lpp/0525/2a9d7a3a6a7646a39909193c427cde26_hrs.jpg"
      ],
      "link_img_small": [
        "https://cs.copart.com/v1/AUTH_svc.pdoc00001/ids-c-prod-lpp/0525/2a9d7a3a6a7646a39909193c427cde26_hrs.jpg"
      ],
      "is_offsite": true,
      "location_offsite": "MA - NORTH BOSTON,\nNORTH BILLERICA,\n01862,\n1632",
      "link": "https://www.copart.com/lot/56635095",
      "vehicle_score": null,
      "seller_type": "dealer",
      "sale_history": [
        {
          "id": "60948991",
          "lot_id": 56635095,
          "site": 1,
          "base_site": "copart",
          "vin": "5TEUU42N79Z618399",
          "sale_status": "ON APPROVAL",
          "sale_date": "2025-05-21T01:00:00.000Z",
          "purchase_price": 7100,
          "is_buynow": false,
          "buyer_state": "FL",
          "buyer_country": "USA",
          "vehicle_type": "truck",
          "rec": 0,
          "created_at": "2025-05-21T04:04:47.015Z",
          "updated_at": "2025-05-21T04:04:47.015Z"
        }
      ],
      "sale_date": "2025-05-21T01:00:00.000Z",
      "sale_status": "ON APPROVAL",
      "purchase_price": 7100,
      "created_at": "2025-05-09T13:48:33.000Z",
      "updated_at": "2025-05-21T04:04:47.041Z"
    }
  ]
}